<?xml version='1.0' encoding='UTF-8'?>
<!DOCTYPE svg PUBLIC "-//W3C//DTD SVG 1.0//EN" "http://www.w3.org/TR/2001/REC-SVG-20010904/DTD/svg10.dtd"><svg xmlns:inkspace='http://www.inkscape.org/namespaces/inkscape' preserveAspectRatio='xMidYMid meet' viewBox='0 0 256 840' xmlns:xlink='http://www.w3.org/1999/xlink' xmlns='http://www.w3.org/2000/svg'>
  <defs id='defs_block'>
    <filter inkspace:collect='always' height='1.504' id='filter_blur' width='1.1575' x='-0.07875' y='-0.252'>
      <feGaussianBlur inkspace:collect='always' id='feGaussianBlur3780' stdDeviation='4.2'/>
    </filter>
  </defs>
  <title>blockdiag</title>
  <desc>{
    lane "Generator" {
        0 [ label = "instanced" ]
        1 [ label = "initialized" ]
        2 [ label = "cloned" ]
        3 [ label = "diagrams" ]
        4 [ label = "attachments" ]
        5 [ label = "slides" ]
        6 [ label = "generated" ]
        7 [ label = "finished" ]
        9 [ label = "canceled" ]
    }

    0 -&gt; 1 -&gt; 2 -&gt; 3 -&gt; 4 -&gt; 5 -&gt; 6 -&gt; 7 -&gt; 9
}</desc>
  <rect fill='rgb(0,0,0)' height='40' stroke='rgb(0,0,0)' style='filter:url(#filter_blur);opacity:0.7;fill-opacity:1' width='128' x='67' y='126'/>
  <rect fill='rgb(0,0,0)' height='40' stroke='rgb(0,0,0)' style='filter:url(#filter_blur);opacity:0.7;fill-opacity:1' width='128' x='67' y='206'/>
  <rect fill='rgb(0,0,0)' height='40' stroke='rgb(0,0,0)' style='filter:url(#filter_blur);opacity:0.7;fill-opacity:1' width='128' x='67' y='286'/>
  <rect fill='rgb(0,0,0)' height='40' stroke='rgb(0,0,0)' style='filter:url(#filter_blur);opacity:0.7;fill-opacity:1' width='128' x='67' y='366'/>
  <rect fill='rgb(0,0,0)' height='40' stroke='rgb(0,0,0)' style='filter:url(#filter_blur);opacity:0.7;fill-opacity:1' width='128' x='67' y='446'/>
  <rect fill='rgb(0,0,0)' height='40' stroke='rgb(0,0,0)' style='filter:url(#filter_blur);opacity:0.7;fill-opacity:1' width='128' x='67' y='526'/>
  <rect fill='rgb(0,0,0)' height='40' stroke='rgb(0,0,0)' style='filter:url(#filter_blur);opacity:0.7;fill-opacity:1' width='128' x='67' y='606'/>
  <rect fill='rgb(0,0,0)' height='40' stroke='rgb(0,0,0)' style='filter:url(#filter_blur);opacity:0.7;fill-opacity:1' width='128' x='67' y='686'/>
  <rect fill='rgb(0,0,0)' height='40' stroke='rgb(0,0,0)' style='filter:url(#filter_blur);opacity:0.7;fill-opacity:1' width='128' x='67' y='766'/>
  <rect fill='#ffff99' height='62' stroke='#ffff99' width='192' x='32' y='38'/>
  <text fill='rgb(0,0,0)' font-family='sans-serif' font-size='11' font-style='normal' font-weight='normal' text-anchor='middle' textLength='63' x='128.5' y='75'>Generator</text>
  <rect fill='none' height='782' stroke='gray' width='192' x='32' y='38'/>
  <path d='M 32 100 L 224 100' fill='none' stroke='gray'/>
  <rect fill='rgb(255,255,255)' height='40' stroke='rgb(0,0,0)' width='128' x='64' y='120'/>
  <text fill='rgb(0,0,0)' font-family='sans-serif' font-size='11' font-style='normal' font-weight='normal' text-anchor='middle' textLength='63' x='128.5' y='146'>instanced</text>
  <rect fill='rgb(255,255,255)' height='40' stroke='rgb(0,0,0)' width='128' x='64' y='200'/>
  <text fill='rgb(0,0,0)' font-family='sans-serif' font-size='11' font-style='normal' font-weight='normal' text-anchor='middle' textLength='77' x='128.5' y='226'>initialized</text>
  <rect fill='rgb(255,255,255)' height='40' stroke='rgb(0,0,0)' width='128' x='64' y='280'/>
  <text fill='rgb(0,0,0)' font-family='sans-serif' font-size='11' font-style='normal' font-weight='normal' text-anchor='middle' textLength='42' x='128.0' y='306'>cloned</text>
  <rect fill='rgb(255,255,255)' height='40' stroke='rgb(0,0,0)' width='128' x='64' y='360'/>
  <text fill='rgb(0,0,0)' font-family='sans-serif' font-size='11' font-style='normal' font-weight='normal' text-anchor='middle' textLength='56' x='128.0' y='387'>diagrams</text>
  <rect fill='rgb(255,255,255)' height='40' stroke='rgb(0,0,0)' width='128' x='64' y='440'/>
  <text fill='rgb(0,0,0)' font-family='sans-serif' font-size='11' font-style='normal' font-weight='normal' text-anchor='middle' textLength='77' x='128.5' y='466'>attachments</text>
  <rect fill='rgb(255,255,255)' height='40' stroke='rgb(0,0,0)' width='128' x='64' y='520'/>
  <text fill='rgb(0,0,0)' font-family='sans-serif' font-size='11' font-style='normal' font-weight='normal' text-anchor='middle' textLength='42' x='128.0' y='546'>slides</text>
  <rect fill='rgb(255,255,255)' height='40' stroke='rgb(0,0,0)' width='128' x='64' y='600'/>
  <text fill='rgb(0,0,0)' font-family='sans-serif' font-size='11' font-style='normal' font-weight='normal' text-anchor='middle' textLength='63' x='128.5' y='627'>generated</text>
  <rect fill='rgb(255,255,255)' height='40' stroke='rgb(0,0,0)' width='128' x='64' y='680'/>
  <text fill='rgb(0,0,0)' font-family='sans-serif' font-size='11' font-style='normal' font-weight='normal' text-anchor='middle' textLength='56' x='128.0' y='706'>finished</text>
  <rect fill='rgb(255,255,255)' height='40' stroke='rgb(0,0,0)' width='128' x='64' y='760'/>
  <text fill='rgb(0,0,0)' font-family='sans-serif' font-size='11' font-style='normal' font-weight='normal' text-anchor='middle' textLength='56' x='128.0' y='786'>canceled</text>
  <path d='M 128 160 L 128 192' fill='none' stroke='rgb(0,0,0)'/>
  <polygon fill='rgb(0,0,0)' points='128,199 124,192 132,192 128,199' stroke='rgb(0,0,0)'/>
  <path d='M 128 240 L 128 272' fill='none' stroke='rgb(0,0,0)'/>
  <polygon fill='rgb(0,0,0)' points='128,279 124,272 132,272 128,279' stroke='rgb(0,0,0)'/>
  <path d='M 128 320 L 128 352' fill='none' stroke='rgb(0,0,0)'/>
  <polygon fill='rgb(0,0,0)' points='128,359 124,352 132,352 128,359' stroke='rgb(0,0,0)'/>
  <path d='M 128 400 L 128 432' fill='none' stroke='rgb(0,0,0)'/>
  <polygon fill='rgb(0,0,0)' points='128,439 124,432 132,432 128,439' stroke='rgb(0,0,0)'/>
  <path d='M 128 480 L 128 512' fill='none' stroke='rgb(0,0,0)'/>
  <polygon fill='rgb(0,0,0)' points='128,519 124,512 132,512 128,519' stroke='rgb(0,0,0)'/>
  <path d='M 128 560 L 128 592' fill='none' stroke='rgb(0,0,0)'/>
  <polygon fill='rgb(0,0,0)' points='128,599 124,592 132,592 128,599' stroke='rgb(0,0,0)'/>
  <path d='M 128 640 L 128 672' fill='none' stroke='rgb(0,0,0)'/>
  <polygon fill='rgb(0,0,0)' points='128,679 124,672 132,672 128,679' stroke='rgb(0,0,0)'/>
  <path d='M 128 720 L 128 752' fill='none' stroke='rgb(0,0,0)'/>
  <polygon fill='rgb(0,0,0)' points='128,759 124,752 132,752 128,759' stroke='rgb(0,0,0)'/>
</svg>
